HW4/hw4/hw4_1/out.txt
-------------------------------------------------
Step: 1
Compiling the following verilog files: clkrst.v decoder3_8.v dff.v eightmux8_1.v mux2_1.v mux4_1.v mux8_1.v nand2.v nand3.v nor2.v nor3.v not1.v reg_cell.v register.v rf_bypass_hier_bench.v rf_bypass_hier.v rf_bypass.v rf_hier.v rf.v xor2.v xor3.v 
Top module: rf_bypass_hier_bench
Compilation log in wsrun.log
Executing rm -rf __work dump.wlf dump.vcd diff.trace diff.ptrace archsim.trace archsim.ptrace verilogsim.trace verilogsim.ptrace
Executing vlib __work
Executing vlog +define+RANDSEED=3 -work __work clkrst.v decoder3_8.v dff.v eightmux8_1.v mux2_1.v mux4_1.v mux8_1.v nand2.v nand3.v nor2.v nor3.v not1.v reg_cell.v register.v rf_bypass_hier_bench.v rf_bypass_hier.v rf_bypass.v rf_hier.v rf.v xor2.v xor3.v
Model Technology ModelSim SE vlog 5.8b Compiler 2004.01 Jan 26 2004
-- Compiling module clkrst
-- Compiling module decoder3_8
-- Compiling module dff
-- Compiling module eightmux8_1
-- Compiling module mux2_1
-- Compiling module mux4_1
-- Compiling module mux8_1
-- Compiling module nand2
-- Compiling module nand3
-- Compiling module nor2
-- Compiling module nor3
-- Compiling module not1
-- Compiling module reg_cell
-- Compiling module register
-- Compiling module rf_bypass_hier_bench
-- Compiling module rf_bypass_hier
-- Compiling module rf_bypass
-- Compiling module rf_hier
-- Compiling module rf
-- Compiling module xor2
-- Compiling module xor3

Top level modules:
	nand2
	nand3
	nor3
	rf_bypass_hier_bench
	rf_hier
	xor2
	xor3
-------------------------------------------------
Step: 2
Running Verilog simulation...details in wsrun.log
Reading /afs/cs.wisc.edu/s/mentor-2004/common/modeltech-5.8b/tcl/vsim/pref.tcl 

# 5.8b

# vsim -lib __work -c rf_bypass_hier_bench 
# //  ModelSim SE 5.8b Jan 01 2004 Linux 2.6.32-573.7.1.el6.x86_64
# //
# //  Copyright Model Technology, a Mentor Graphics Corporation company, 2004
# //                         All Rights Reserved.
# //                   UNPUBLISHED, LICENSED SOFTWARE.
# //         CONFIDENTIAL AND PROPRIETARY INFORMATION WHICH IS THE
# //        PROPERTY OF MENTOR GRAPHICS CORPORATION OR ITS LICENSORS.
# //
# Loading __work.rf_bypass_hier_bench
# Loading __work.rf_bypass_hier
# Loading __work.clkrst
# Loading __work.rf_bypass
# Loading __work.rf
# Loading __work.decoder3_8
# Loading __work.register
# Loading __work.reg_cell
# Loading __work.mux2_1
# Loading __work.not1
# Loading __work.nor2
# Loading __work.dff
# Loading __work.eightmux8_1
# Loading __work.mux8_1
# Loading __work.mux4_1
VSIM 1> run -all
# Simulation 1000 cycles
# Cycle:    0 R1 Sel: 4 R1 Data:     0 Expected R1 Data:     0 R2 Sel: 1 R2 Data: 37385 Expected R2 data:     0 W Sel: 3 W Data: 54793 W Enable: 1
# Cycle:    1 R1 Sel: 5 R1 Data:  4608 Expected R1 Data:     0 R2 Sel: 5 R2 Data:  4608 Expected R2 data:     0 W Sel: 1 W Data: 21010 W Enable: 1
# Cycle:    2 R1 Sel: 6 R1 Data: 16676 Expected R1 Data:     0 R2 Sel: 5 R2 Data: 16676 Expected R2 data:     0 W Sel: 4 W Data: 22509 W Enable: 1
# ERRORCHECK: Read data incorrect in cycle    2
# Cycle:    3 R1 Sel: 6 R1 Data: 16416 Expected R1 Data:     0 R2 Sel: 5 R2 Data: 53800 Expected R2 data: 53930 W Sel: 5 W Data: 53930 W Enable: 1
# ERRORCHECK: Read data incorrect in cycle    3
# FYI: Read/write of same port in cycle    3
# Cycle:    4 R1 Sel: 2 R1 Data:  8338 Expected R1 Data:     0 R2 Sel: 7 R2 Data: 27058 Expected R2 data:     0 W Sel: 6 W Data: 27122 W Enable: 0
# ERRORCHECK: Read data incorrect in cycle    4
# Cycle:    5 R1 Sel: 5 R1 Data:  2223 Expected R1 Data: 10429 R2 Sel: 4 R2 Data:  7917 Expected R2 data: 22509 W Sel: 5 W Data: 10429 W Enable: 1
# ERRORCHECK: Read data incorrect in cycle    5
# FYI: Read/write of same port in cycle    5
# Cycle:    6 R1 Sel: 3 R1 Data:     0 Expected R1 Data:     0 R2 Sel: 2 R2 Data:     0 Expected R2 data:     0 W Sel: 0 W Data:  8832 W Enable: 0
# Cycle:    7 R1 Sel: 5 R1 Data: 47249 Expected R1 Data: 47123 R2 Sel: 6 R2 Data:  2048 Expected R2 data:     0 W Sel: 5 W Data: 47123 W Enable: 1
# ERRORCHECK: Read data incorrect in cycle    7
# FYI: Read/write of same port in cycle    7
# Cycle:    8 R1 Sel: 3 R1 Data:     2 Expected R1 Data:     0 R2 Sel: 5 R2 Data: 63507 Expected R2 data: 47123 W Sel: 6 W Data: 18946 W Enable: 1
# ERRORCHECK: Read data incorrect in cycle    8
# Cycle:    9 R1 Sel: 7 R1 Data:  9218 Expected R1 Data:     0 R2 Sel: 3 R2 Data:  9218 Expected R2 data:     0 W Sel: 2 W Data: 25866 W Enable: 0
# ERRORCHECK: Read data incorrect in cycle    9
# Cycle:   10 R1 Sel: 2 R1 Data:     0 Expected R1 Data:     0 R2 Sel: 2 R2 Data:     0 Expected R2 data:     0 W Sel: 0 W Data: 45889 W Enable: 0
# FYI: Both read ports are same in cycle   10
# Cycle:   11 R1 Sel: 1 R1 Data:     0 Expected R1 Data:     0 R2 Sel: 3 R2 Data:  9362 Expected R2 data:     0 W Sel: 6 W Data: 26038 W Enable: 0
# ERRORCHECK: Read data incorrect in cycle   11
# Cycle:   12 R1 Sel: 4 R1 Data: 22509 Expected R1 Data: 22509 R2 Sel: 2 R2 Data:     0 Expected R2 data:     0 W Sel: 1 W Data: 39435 W Enable: 1
# Cycle:   13 R1 Sel: 7 R1 Data:  8498 Expected R1 Data:     0 R2 Sel: 3 R2 Data:  8210 Expected R2 data:     0 W Sel: 6 W Data: 13114 W Enable: 1
# ERRORCHECK: Read data incorrect in cycle   13
# Cycle:   14 R1 Sel: 1 R1 Data: 39435 Expected R1 Data: 39435 R2 Sel: 1 R2 Data: 39435 Expected R2 data: 39435 W Sel: 4 W Data:  1890 W Enable: 1
# FYI: Both read ports are same in cycle   14
# Cycle:   15 R1 Sel: 7 R1 Data: 24759 Expected R1 Data:     0 R2 Sel: 0 R2 Data:     0 Expected R2 data:     0 W Sel: 7 W Data: 24759 W Enable: 0
# ERRORCHECK: Read data incorrect in cycle   15
# Cycle:   16 R1 Sel: 3 R1 Data:     0 Expected R1 Data:     0 R2 Sel: 1 R2 Data: 39435 Expected R2 data: 39435 W Sel: 0 W Data: 12873 W Enable: 1
# Cycle:   17 R1 Sel: 1 R1 Data: 39435 Expected R1 Data: 39435 R2 Sel: 6 R2 Data: 14120 Expected R2 data: 13114 W Sel: 2 W Data: 32524 W Enable: 0
# ERRORCHECK: Read data incorrect in cycle   17
# Cycle:   18 R1 Sel: 7 R1 Data: 18706 Expected R1 Data:     0 R2 Sel: 5 R2 Data: 63763 Expected R2 data: 47123 W Sel: 6 W Data: 56082 W Enable: 1
# ERRORCHECK: Read data incorrect in cycle   18
# Cycle:   19 R1 Sel: 1 R1 Data: 39491 Expected R1 Data: 39435 R2 Sel: 7 R2 Data: 53825 Expected R2 data:     0 W Sel: 5 W Data: 63187 W Enable: 0
# ERRORCHECK: Read data incorrect in cycle   19
# Cycle:   20 R1 Sel: 3 R1 Data:  9234 Expected R1 Data:     0 R2 Sel: 1 R2 Data: 39435 Expected R2 data: 39435 W Sel: 2 W Data: 44607 W Enable: 0
# ERRORCHECK: Read data incorrect in cycle   20
# Cycle:   21 R1 Sel: 6 R1 Data: 64400 Expected R1 Data: 56082 R2 Sel: 6 R2 Data: 64400 Expected R2 data: 56082 W Sel: 2 W Data: 62108 W Enable: 0
# ERRORCHECK: Read data incorrect in cycle   21
# FYI: Both read ports are same in cycle   21
# Cycle:   22 R1 Sel: 3 R1 Data: 40971 Expected R1 Data: 43055 R2 Sel: 3 R2 Data: 40971 Expected R2 data: 43055 W Sel: 3 W Data: 43055 W Enable: 1
# ERRORCHECK: Read data incorrect in cycle   22
# FYI: Both read ports are same in cycle   22
# FYI: Read/write of same port in cycle   22
# Cycle:   23 R1 Sel: 4 R1 Data:  1602 Expected R1 Data:  1890 R2 Sel: 7 R2 Data:  9346 Expected R2 data:     0 W Sel: 6 W Data: 14027 W Enable: 0
# ERRORCHECK: Read data incorrect in cycle   23
# Cycle:   24 R1 Sel: 1 R1 Data:  2122 Expected R1 Data: 39435 R2 Sel: 5 R2 Data: 26714 Expected R2 data: 27866 W Sel: 5 W Data: 27866 W Enable: 1
# ERRORCHECK: Read data incorrect in cycle   24
# FYI: Read/write of same port in cycle   24
# Cycle:   25 R1 Sel: 7 R1 Data:     0 Expected R1 Data:     0 R2 Sel: 1 R2 Data: 39435 Expected R2 data: 39435 W Sel: 0 W Data: 65348 W Enable: 0
# Cycle:   26 R1 Sel: 3 R1 Data: 44221 Expected R1 Data: 43055 R2 Sel: 6 R2 Data: 65424 Expected R2 data: 56082 W Sel: 2 W Data: 44508 W Enable: 1
# ERRORCHECK: Read data incorrect in cycle   26
# Cycle:   27 R1 Sel: 3 R1 Data: 43118 Expected R1 Data: 43055 R2 Sel: 6 R2 Data: 64262 Expected R2 data: 56082 W Sel: 7 W Data: 59726 W Enable: 0
# ERRORCHECK: Read data incorrect in cycle   27
# Cycle:   28 R1 Sel: 6 R1 Data: 56082 Expected R1 Data: 56082 R2 Sel: 0 R2 Data: 12873 Expected R2 data: 12873 W Sel: 0 W Data: 34681 W Enable: 0
# Cycle:   29 R1 Sel: 3 R1 Data: 35453 Expected R1 Data: 51801 R2 Sel: 4 R2 Data:  1890 Expected R2 data:  1890 W Sel: 3 W Data: 51801 W Enable: 1
# ERRORCHECK: Read data incorrect in cycle   29
# FYI: Read/write of same port in cycle   29
# Cycle:   30 R1 Sel: 1 R1 Data: 39435 Expected R1 Data: 39435 R2 Sel: 5 R2 Data: 27866 Expected R2 data: 27866 W Sel: 2 W Data: 57974 W Enable: 0
# Cycle:   31 R1 Sel: 5 R1 Data: 49046 Expected R1 Data: 27866 R2 Sel: 6 R2 Data: 39684 Expected R2 data: 56082 W Sel: 7 W Data: 39684 W Enable: 1
# ERRORCHECK: Read data incorrect in cycle   31
# Cycle:   32 R1 Sel: 4 R1 Data: 20322 Expected R1 Data:  1890 R2 Sel: 0 R2 Data: 12873 Expected R2 data: 12873 W Sel: 5 W Data: 55592 W Enable: 1
# ERRORCHECK: Read data incorrect in cycle   32
# Cycle:   33 R1 Sel: 6 R1 Data: 54038 Expected R1 Data: 56082 R2 Sel: 0 R2 Data: 12873 Expected R2 data: 12873 W Sel: 5 W Data: 17692 W Enable: 1
# ERRORCHECK: Read data incorrect in cycle   33
# Cycle:   34 R1 Sel: 4 R1 Data:  3650 Expected R1 Data:  1890 R2 Sel: 6 R2 Data: 39442 Expected R2 data: 56082 W Sel: 5 W Data:  2266 W Enable: 0
# ERRORCHECK: Read data incorrect in cycle   34
# Cycle:   35 R1 Sel: 0 R1 Data: 12873 Expected R1 Data: 12873 R2 Sel: 3 R2 Data: 51931 Expected R2 data: 51801 W Sel: 6 W Data: 39354 W Enable: 0
# ERRORCHECK: Read data incorrect in cycle   35
# Cycle:   36 R1 Sel: 5 R1 Data:  1081 Expected R1 Data: 17692 R2 Sel: 2 R2 Data: 35292 Expected R2 data: 44508 W Sel: 7 W Data:   185 W Enable: 0
# ERRORCHECK: Read data incorrect in cycle   36
# Cycle:   37 R1 Sel: 0 R1 Data: 12873 Expected R1 Data: 12873 R2 Sel: 6 R2 Data: 39478 Expected R2 data: 56082 W Sel: 5 W Data:  6838 W Enable: 0
# ERRORCHECK: Read data incorrect in cycle   37
# Cycle:   38 R1 Sel: 6 R1 Data: 56082 Expected R1 Data: 56082 R2 Sel: 0 R2 Data: 12873 Expected R2 data: 12873 W Sel: 3 W Data: 39806 W Enable: 1
# Cycle:   39 R1 Sel: 1 R1 Data: 35395 Expected R1 Data: 39435 R2 Sel: 2 R2 Data: 44364 Expected R2 data: 44508 W Sel: 7 W Data: 61025 W Enable: 1
# ERRORCHECK: Read data incorrect in cycle   39
# Cycle:   40 R1 Sel: 6 R1 Data: 56118 Expected R1 Data: 56082 R2 Sel: 0 R2 Data: 12873 Expected R2 data: 12873 W Sel: 5 W Data: 23029 W Enable: 1
# ERRORCHECK: Read data incorrect in cycle   40
# Cycle:   41 R1 Sel: 1 R1 Data: 38922 Expected R1 Data: 39435 R2 Sel: 5 R2 Data: 55740 Expected R2 data: 23029 W Sel: 3 W Data: 46232 W Enable: 1
# ERRORCHECK: Read data incorrect in cycle   41
# Cycle:   42 R1 Sel: 4 R1 Data:  1890 Expected R1 Data:  1890 R2 Sel: 2 R2 Data: 44508 Expected R2 data: 44508 W Sel: 0 W Data: 53582 W Enable: 1
# Cycle:   43 R1 Sel: 1 R1 Data:  2626 Expected R1 Data: 39435 R2 Sel: 6 R2 Data: 63142 Expected R2 data: 56082 W Sel: 7 W Data: 26342 W Enable: 0
# ERRORCHECK: Read data incorrect in cycle   43
# Cycle:   44 R1 Sel: 2 R1 Data: 44508 Expected R1 Data: 44508 R2 Sel: 5 R2 Data: 23029 Expected R2 data: 23029 W Sel: 0 W Data: 65438 W Enable: 1
# Cycle:   45 R1 Sel: 0 R1 Data: 65438 Expected R1 Data: 65438 R2 Sel: 2 R2 Data: 35166 Expected R2 data: 44508 W Sel: 3 W Data: 16659 W Enable: 1
# ERRORCHECK: Read data incorrect in cycle   45
# Cycle:   46 R1 Sel: 6 R1 Data: 56082 Expected R1 Data: 56082 R2 Sel: 2 R2 Data: 44508 Expected R2 data: 44508 W Sel: 1 W Data: 43972 W Enable: 0
# Cycle:   47 R1 Sel: 4 R1 Data:  1890 Expected R1 Data:  1890 R2 Sel: 7 R2 Data: 51939 Expected R2 data: 61025 W Sel: 2 W Data: 36998 W Enable: 0
# ERRORCHECK: Read data incorrect in cycle   47
# Cycle:   48 R1 Sel: 2 R1 Data: 44508 Expected R1 Data: 44508 R2 Sel: 5 R2 Data: 22997 Expected R2 data: 23029 W Sel: 4 W Data: 52612 W Enable: 0
# ERRORCHECK: Read data incorrect in cycle   48
# Cycle:   49 R1 Sel: 1 R1 Data: 34826 Expected R1 Data: 39435 R2 Sel: 1 R2 Data: 34826 Expected R2 data: 39435 W Sel: 3 W Data: 43406 W Enable: 1
# ERRORCHECK: Read data incorrect in cycle   49
# FYI: Both read ports are same in cycle   49
# Cycle:   50 R1 Sel: 7 R1 Data: 58660 Expected R1 Data: 61025 R2 Sel: 1 R2 Data: 34818 Expected R2 data: 39435 W Sel: 5 W Data: 58678 W Enable: 1
# ERRORCHECK: Read data incorrect in cycle   50
# Cycle:   51 R1 Sel: 3 R1 Data: 48526 Expected R1 Data: 43406 R2 Sel: 0 R2 Data: 65438 Expected R2 data: 65438 W Sel: 3 W Data: 46254 W Enable: 0
# ERRORCHECK: Read data incorrect in cycle   51
# Cycle:   52 R1 Sel: 0 R1 Data: 65438 Expected R1 Data: 65438 R2 Sel: 5 R2 Data: 58678 Expected R2 data: 58678 W Sel: 2 W Data: 24395 W Enable: 0
# Cycle:   53 R1 Sel: 5 R1 Data: 62782 Expected R1 Data: 58678 R2 Sel: 4 R2 Data:  1890 Expected R2 data:  1890 W Sel: 1 W Data: 40216 W Enable: 0
# ERRORCHECK: Read data incorrect in cycle   53
# Cycle:   54 R1 Sel: 1 R1 Data: 38986 Expected R1 Data: 39435 R2 Sel: 3 R2 Data: 47580 Expected R2 data: 43406 W Sel: 3 W Data: 63960 W Enable: 0
# ERRORCHECK: Read data incorrect in cycle   54
# Cycle:   55 R1 Sel: 3 R1 Data: 43780 Expected R1 Data: 43406 R2 Sel: 2 R2 Data: 43340 Expected R2 data: 44508 W Sel: 3 W Data: 57860 W Enable: 0
# ERRORCHECK: Read data incorrect in cycle   55
# Cycle:   56 R1 Sel: 2 R1 Data: 44508 Expected R1 Data: 44508 R2 Sel: 0 R2 Data: 65438 Expected R2 data: 65438 W Sel: 5 W Data:  4665 W Enable: 1
# Cycle:   57 R1 Sel: 3 R1 Data: 36300 Expected R1 Data: 43406 R2 Sel: 1 R2 Data: 34890 Expected R2 data: 39435 W Sel: 7 W Data: 34248 W Enable: 1
# ERRORCHECK: Read data incorrect in cycle   57
# Cycle:   58 R1 Sel: 7 R1 Data: 41304 Expected R1 Data: 34248 R2 Sel: 4 R2 Data:  1858 Expected R2 data:  1890 W Sel: 6 W Data:  9048 W Enable: 0
# ERRORCHECK: Read data incorrect in cycle   58
# Cycle:   59 R1 Sel: 2 R1 Data: 44508 Expected R1 Data: 44508 R2 Sel: 6 R2 Data: 53810 Expected R2 data: 56082 W Sel: 5 W Data: 58033 W Enable: 1
# ERRORCHECK: Read data incorrect in cycle   59
# Cycle:   60 R1 Sel: 3 R1 Data:  2957 Expected R1 Data: 43406 R2 Sel: 5 R2 Data:  9149 Expected R2 data: 58033 W Sel: 7 W Data:   941 W Enable: 0
# ERRORCHECK: Read data incorrect in cycle   60
# Cycle:   61 R1 Sel: 7 R1 Data: 38281 Expected R1 Data: 34248 R2 Sel: 7 R2 Data: 38281 Expected R2 data: 34248 W Sel: 1 W Data: 37049 W Enable: 1
# ERRORCHECK: Read data incorrect in cycle   61
# FYI: Both read ports are same in cycle   61
# Cycle:   62 R1 Sel: 1 R1 Data: 37049 Expected R1 Data: 37049 R2 Sel: 1 R2 Data: 37049 Expected R2 data: 37049 W Sel: 2 W Data: 24225 W Enable: 0
# FYI: Both read ports are same in cycle   62
# Cycle:   63 R1 Sel: 5 R1 Data: 58033 Expected R1 Data: 58033 R2 Sel: 3 R2 Data: 35100 Expected R2 data: 43406 W Sel: 2 W Data: 17020 W Enable: 0
# ERRORCHECK: Read data incorrect in cycle   63
# Cycle:   64 R1 Sel: 0 R1 Data: 65438 Expected R1 Data: 65438 R2 Sel: 7 R2 Data: 34248 Expected R2 data: 34248 W Sel: 0 W Data:  3462 W Enable: 0
# Cycle:   65 R1 Sel: 0 R1 Data: 65438 Expected R1 Data: 65438 R2 Sel: 0 R2 Data: 65438 Expected R2 data: 65438 W Sel: 5 W Data: 43510 W Enable: 0
# FYI: Both read ports are same in cycle   65
# Cycle:   66 R1 Sel: 4 R1 Data: 20066 Expected R1 Data:  1890 R2 Sel: 1 R2 Data: 37049 Expected R2 data: 37049 W Sel: 4 W Data: 27312 W Enable: 0
# ERRORCHECK: Read data incorrect in cycle   66
# Cycle:   67 R1 Sel: 2 R1 Data: 36300 Expected R1 Data: 44508 R2 Sel: 5 R2 Data: 27377 Expected R2 data: 58033 W Sel: 7 W Data: 20193 W Enable: 1
# ERRORCHECK: Read data incorrect in cycle   67
# Cycle:   68 R1 Sel: 1 R1 Data: 33457 Expected R1 Data: 52005 R2 Sel: 6 R2 Data: 56082 Expected R2 data: 56082 W Sel: 1 W Data: 52005 W Enable: 1
# ERRORCHECK: Read data incorrect in cycle   68
# FYI: Read/write of same port in cycle   68
# Cycle:   69 R1 Sel: 2 R1 Data: 44508 Expected R1 Data: 44508 R2 Sel: 7 R2 Data: 20453 Expected R2 data: 20193 W Sel: 4 W Data: 31532 W Enable: 1
# ERRORCHECK: Read data incorrect in cycle   69
# Cycle:   70 R1 Sel: 3 R1 Data: 35230 Expected R1 Data: 43406 R2 Sel: 6 R2 Data: 53942 Expected R2 data: 56082 W Sel: 6 W Data: 49911 W Enable: 0
# ERRORCHECK: Read data incorrect in cycle   70
# Cycle:   71 R1 Sel: 5 R1 Data: 58033 Expected R1 Data: 58033 R2 Sel: 0 R2 Data: 65438 Expected R2 data: 65438 W Sel: 2 W Data:  4768 W Enable: 0
# Cycle:   72 R1 Sel: 5 R1 Data: 61689 Expected R1 Data: 58033 R2 Sel: 5 R2 Data: 61689 Expected R2 data: 58033 W Sel: 1 W Data: 39243 W Enable: 0
# ERRORCHECK: Read data incorrect in cycle   72
# FYI: Both read ports are same in cycle   72
# Cycle:   73 R1 Sel: 5 R1 Data: 29369 Expected R1 Data: 58033 R2 Sel: 3 R2 Data: 15247 Expected R2 data: 29583 W Sel: 3 W Data: 29583 W Enable: 1
# ERRORCHECK: Read data incorrect in cycle   73
# FYI: Read/write of same port in cycle   73
# Cycle:   74 R1 Sel: 5 R1 Data: 48084 Expected R1 Data: 58033 R2 Sel: 1 R2 Data: 56164 Expected R2 data: 52005 W Sel: 5 W Data: 40772 W Enable: 0
# ERRORCHECK: Read data incorrect in cycle   74
# Cycle:   75 R1 Sel: 5 R1 Data: 31736 Expected R1 Data: 58033 R2 Sel: 2 R2 Data: 44508 Expected R2 data: 44508 W Sel: 5 W Data: 23544 W Enable: 0
# ERRORCHECK: Read data incorrect in cycle   75
# Cycle:   76 R1 Sel: 4 R1 Data: 31532 Expected R1 Data: 31532 R2 Sel: 6 R2 Data: 56082 Expected R2 data: 56082 W Sel: 0 W Data: 37516 W Enable: 1
# Cycle:   77 R1 Sel: 2 R1 Data: 44508 Expected R1 Data: 44508 R2 Sel: 4 R2 Data: 14888 Expected R2 data: 31532 W Sel: 4 W Data: 48298 W Enable: 0
# ERRORCHECK: Read data incorrect in cycle   77
# Cycle:   78 R1 Sel: 2 R1 Data: 44508 Expected R1 Data: 44508 R2 Sel: 3 R2 Data: 62342 Expected R2 data: 29583 W Sel: 5 W Data: 65190 W Enable: 0
# ERRORCHECK: Read data incorrect in cycle   78
# Cycle:   79 R1 Sel: 2 R1 Data: 44508 Expected R1 Data: 44508 R2 Sel: 1 R2 Data: 55588 Expected R2 data: 52005 W Sel: 5 W Data: 45076 W Enable: 1
# ERRORCHECK: Read data incorrect in cycle   79
# Cycle:   80 R1 Sel: 4 R1 Data: 31532 Expected R1 Data: 31532 R2 Sel: 7 R2 Data: 56992 Expected R2 data: 20193 W Sel: 1 W Data: 38790 W Enable: 0
# ERRORCHECK: Read data incorrect in cycle   80
# Cycle:   81 R1 Sel: 0 R1 Data: 37516 Expected R1 Data: 37516 R2 Sel: 4 R2 Data: 29452 Expected R2 data: 31532 W Sel: 7 W Data: 17804 W Enable: 0
# ERRORCHECK: Read data incorrect in cycle   81
# Cycle:   82 R1 Sel: 1 R1 Data: 56173 Expected R1 Data: 52005 R2 Sel: 0 R2 Data: 37516 Expected R2 data: 37516 W Sel: 3 W Data: 40523 W Enable: 0
# ERRORCHECK: Read data incorrect in cycle   82
# Cycle:   83 R1 Sel: 3 R1 Data: 25039 Expected R1 Data: 29583 R2 Sel: 4 R2 Data: 31532 Expected R2 data: 31532 W Sel: 1 W Data: 26057 W Enable: 1
# ERRORCHECK: Read data incorrect in cycle   83
# Cycle:   84 R1 Sel: 4 R1 Data: 31532 Expected R1 Data: 31532 R2 Sel: 7 R2 Data: 20193 Expected R2 data: 20193 W Sel: 0 W Data: 16797 W Enable: 0
# Cycle:   85 R1 Sel: 1 R1 Data: 26057 Expected R1 Data: 26057 R2 Sel: 1 R2 Data: 26057 Expected R2 data: 26057 W Sel: 4 W Data: 46880 W Enable: 1
# FYI: Both read ports are same in cycle   85
# Cycle:   86 R1 Sel: 3 R1 Data: 61902 Expected R1 Data: 29583 R2 Sel: 2 R2 Data: 44508 Expected R2 data: 44508 W Sel: 5 W Data: 63688 W Enable: 0
# ERRORCHECK: Read data incorrect in cycle   86
# Cycle:   87 R1 Sel: 4 R1 Data: 46880 Expected R1 Data: 46880 R2 Sel: 3 R2 Data: 30493 Expected R2 data: 29583 W Sel: 2 W Data: 32569 W Enable: 0
# ERRORCHECK: Read data incorrect in cycle   87
# Cycle:   88 R1 Sel: 1 R1 Data: 59336 Expected R1 Data: 26057 R2 Sel: 0 R2 Data: 37516 Expected R2 data: 37516 W Sel: 7 W Data: 60014 W Enable: 1
# ERRORCHECK: Read data incorrect in cycle   88
# Cycle:   89 R1 Sel: 6 R1 Data: 65024 Expected R1 Data: 56082 R2 Sel: 3 R2 Data: 29956 Expected R2 data: 29583 W Sel: 7 W Data: 31744 W Enable: 1
# ERRORCHECK: Read data incorrect in cycle   89
# Cycle:   90 R1 Sel: 4 R1 Data: 65284 Expected R1 Data: 46880 R2 Sel: 1 R2 Data: 26049 Expected R2 data: 26057 W Sel: 7 W Data: 18885 W Enable: 0
# ERRORCHECK: Read data incorrect in cycle   90
# Cycle:   91 R1 Sel: 1 R1 Data: 26057 Expected R1 Data: 26057 R2 Sel: 1 R2 Data: 26057 Expected R2 data: 26057 W Sel: 2 W Data: 52599 W Enable: 0
# FYI: Both read ports are same in cycle   91
# Cycle:   92 R1 Sel: 3 R1 Data: 61852 Expected R1 Data: 29583 R2 Sel: 4 R2 Data: 46880 Expected R2 data: 46880 W Sel: 7 W Data: 45496 W Enable: 0
# ERRORCHECK: Read data incorrect in cycle   92
# Cycle:   93 R1 Sel: 0 R1 Data: 37516 Expected R1 Data: 37516 R2 Sel: 7 R2 Data: 29988 Expected R2 data: 31744 W Sel: 4 W Data: 51125 W Enable: 1
# ERRORCHECK: Read data incorrect in cycle   93
# Cycle:   94 R1 Sel: 6 R1 Data: 56082 Expected R1 Data: 56082 R2 Sel: 1 R2 Data: 59273 Expected R2 data: 35723 W Sel: 1 W Data: 35723 W Enable: 1
# ERRORCHECK: Read data incorrect in cycle   94
# FYI: Read/write of same port in cycle   94
# Cycle:   95 R1 Sel: 0 R1 Data: 37516 Expected R1 Data: 56005 R2 Sel: 2 R2 Data: 44508 Expected R2 data: 44508 W Sel: 0 W Data: 56005 W Enable: 1
# ERRORCHECK: Read data incorrect in cycle   95
# FYI: Read/write of same port in cycle   95
# Cycle:   96 R1 Sel: 6 R1 Data: 56082 Expected R1 Data: 56082 R2 Sel: 7 R2 Data: 31744 Expected R2 data: 31744 W Sel: 0 W Data: 28393 W Enable: 0
# Cycle:   97 R1 Sel: 7 R1 Data: 31892 Expected R1 Data: 31744 R2 Sel: 1 R2 Data: 35723 Expected R2 data: 35723 W Sel: 6 W Data: 31893 W Enable: 0
# ERRORCHECK: Read data incorrect in cycle   97
# Cycle:   98 R1 Sel: 5 R1 Data: 12372 Expected R1 Data: 45076 R2 Sel: 0 R2 Data: 56005 Expected R2 data: 56005 W Sel: 1 W Data: 32100 W Enable: 1
# ERRORCHECK: Read data incorrect in cycle   98
# Cycle:   99 R1 Sel: 7 R1 Data: 62721 Expected R1 Data: 31744 R2 Sel: 6 R2 Data: 54034 Expected R2 data: 56082 W Sel: 5 W Data: 62849 W Enable: 0
# ERRORCHECK: Read data incorrect in cycle   99
# Cycle:  100 R1 Sel: 0 R1 Data: 56005 Expected R1 Data: 56005 R2 Sel: 2 R2 Data: 44508 Expected R2 data: 44508 W Sel: 1 W Data: 49935 W Enable: 1
# Cycle:  101 R1 Sel: 6 R1 Data: 56082 Expected R1 Data: 56082 R2 Sel: 2 R2 Data: 44508 Expected R2 data: 44508 W Sel: 1 W Data: 19772 W Enable: 1
# Cycle:  102 R1 Sel: 3 R1 Data: 62414 Expected R1 Data: 29583 R2 Sel: 7 R2 Data: 65096 Expected R2 data: 31744 W Sel: 1 W Data: 39754 W Enable: 1
# ERRORCHECK: Read data incorrect in cycle  102
# Cycle:  103 R1 Sel: 3 R1 Data: 26453 Expected R1 Data: 29583 R2 Sel: 5 R2 Data:  9041 Expected R2 data: 45076 W Sel: 7 W Data: 10065 W Enable: 1
# ERRORCHECK: Read data incorrect in cycle  103
# Cycle:  104 R1 Sel: 2 R1 Data: 44508 Expected R1 Data: 44508 R2 Sel: 1 R2 Data: 39754 Expected R2 data: 39754 W Sel: 4 W Data:  1890 W Enable: 0
# Cycle:  105 R1 Sel: 5 R1 Data: 41845 Expected R1 Data: 41957 R2 Sel: 1 R2 Data: 35651 Expected R2 data: 39754 W Sel: 5 W Data: 41957 W Enable: 1
# ERRORCHECK: Read data incorrect in cycle  105
# FYI: Read/write of same port in cycle  105
# Cycle:  106 R1 Sel: 1 R1 Data:  6475 Expected R1 Data: 39754 R2 Sel: 7 R2 Data: 15449 Expected R2 data: 10065 W Sel: 5 W Data:  7387 W Enable: 0
# ERRORCHECK: Read data incorrect in cycle  106
# Cycle:  107 R1 Sel: 6 R1 Data: 65424 Expected R1 Data: 56082 R2 Sel: 2 R2 Data: 44508 Expected R2 data: 44508 W Sel: 2 W Data: 15805 W Enable: 0
# ERRORCHECK: Read data incorrect in cycle  107
# Cycle:  108 R1 Sel: 0 R1 Data: 56005 Expected R1 Data: 56005 R2 Sel: 3 R2 Data: 29583 Expected R2 data: 29583 W Sel: 0 W Data: 22565 W Enable: 0
# Cycle:  109 R1 Sel: 4 R1 Data: 51125 Expected R1 Data: 51125 R2 Sel: 3 R2 Data: 29583 Expected R2 data: 29583 W Sel: 0 W Data: 43897 W Enable: 1
# Cycle:  110 R1 Sel: 6 R1 Data: 37636 Expected R1 Data: 56082 R2 Sel: 3 R2 Data: 21261 Expected R2 data: 29583 W Sel: 6 W Data:   780 W Enable: 0
# ERRORCHECK: Read data incorrect in cycle  110
# Cycle:  111 R1 Sel: 1 R1 Data: 39754 Expected R1 Data: 39754 R2 Sel: 1 R2 Data: 39754 Expected R2 data: 39754 W Sel: 4 W Data: 49331 W Enable: 1
# FYI: Both read ports are same in cycle  111
# Cycle:  112 R1 Sel: 4 R1 Data: 33171 Expected R1 Data: 49331 R2 Sel: 1 R2 Data: 39682 Expected R2 data: 39754 W Sel: 5 W Data: 37634 W Enable: 1
# ERRORCHECK: Read data incorrect in cycle  112
# Cycle:  113 R1 Sel: 6 R1 Data: 56082 Expected R1 Data: 56082 R2 Sel: 2 R2 Data: 44508 Expected R2 data: 44508 W Sel: 0 W Data: 20920 W Enable: 1
# Cycle:  114 R1 Sel: 7 R1 Data: 11536 Expected R1 Data: 10065 R2 Sel: 0 R2 Data: 20920 Expected R2 data: 20920 W Sel: 5 W Data:  2448 W Enable: 0
